{
 "/airplane/*": {
                "target": "https://public-api.adsbexchange.com",
                "secure": true,
                "changeOrigin": true,
                "logLevel": "debug",
                "pathRewrite": { "^/airplane": "" },
                "Access-Control-Allow-Origin": {}
                
            }
}